<?xml version="1.0" encoding="UTF-8" standalone="no"?>
<!-- Created with Inkscape (http://www.inkscape.org/) -->

<svg
   xmlns:dc="http://purl.org/dc/elements/1.1/"
   xmlns:cc="http://creativecommons.org/ns#"
   xmlns:rdf="http://www.w3.org/1999/02/22-rdf-syntax-ns#"
   xmlns:svg="http://www.w3.org/2000/svg"
   xmlns="http://www.w3.org/2000/svg"
   xmlns:sodipodi="http://sodipodi.sourceforge.net/DTD/sodipodi-0.dtd"
   xmlns:inkscape="http://www.inkscape.org/namespaces/inkscape"
   width="240mm"
   height="120mm"
   viewBox="0 0 240 120"
   version="1.1"
   id="svg8"
   inkscape:version="0.92.2 5c3e80d, 2017-08-06"
   sodipodi:docname="memory_model2.svg">
  <defs
     id="defs2" />
  <sodipodi:namedview
     id="base"
     pagecolor="#ffffff"
     bordercolor="#666666"
     borderopacity="1.0"
     inkscape:pageopacity="0.0"
     inkscape:pageshadow="2"
     inkscape:zoom="0.99437388"
     inkscape:cx="242.94069"
     inkscape:cy="102.26792"
     inkscape:document-units="mm"
     inkscape:current-layer="layer1"
     showgrid="false"
     showborder="true"
     width="200mm"
     showguides="true"
     inkscape:guide-bbox="true"
     inkscape:window-width="1440"
     inkscape:window-height="855"
     inkscape:window-x="0"
     inkscape:window-y="1"
     inkscape:window-maximized="1"
     inkscape:snap-nodes="true"
     inkscape:snap-global="true"
     inkscape:snap-others="false"
     inkscape:object-nodes="true"
     inkscape:snap-intersection-paths="true"
     inkscape:snap-smooth-nodes="true">
    <inkscape:grid
       type="xygrid"
       id="grid815"
       units="mm"
       spacingx="10"
       spacingy="10"
       empspacing="4"
       dotted="false" />
  </sodipodi:namedview>
  <metadata
     id="metadata5">
    <rdf:RDF>
      <cc:Work
         rdf:about="">
        <dc:format>image/svg+xml</dc:format>
        <dc:type
           rdf:resource="http://purl.org/dc/dcmitype/StillImage" />
        <dc:title />
      </cc:Work>
    </rdf:RDF>
  </metadata>
  <g
     inkscape:label="Layer 1"
     inkscape:groupmode="layer"
     id="layer1"
     transform="translate(0,-177)">
    <text
       xml:space="preserve"
       style="font-style:normal;font-weight:normal;font-size:7.05555534px;line-height:1.25;font-family:sans-serif;letter-spacing:0px;word-spacing:0px;fill:#000000;fill-opacity:1;stroke:none;stroke-width:0.26458332"
       x="34.324364"
       y="212.91861"
       id="text988"><tspan
         sodipodi:role="line"
         id="tspan986"
         x="34.324364"
         y="219.16112"
         style="stroke-width:0.26458332" /></text>
    <text
       xml:space="preserve"
       style="font-style:normal;font-weight:normal;font-size:7.05555534px;line-height:1.25;font-family:sans-serif;letter-spacing:0px;word-spacing:0px;fill:#000000;fill-opacity:1;stroke:none;stroke-width:0.26458332"
       x="34.058281"
       y="216.64374"
       id="text1025"><tspan
         sodipodi:role="line"
         id="tspan1023"
         x="34.058281"
         y="222.88625"
         style="stroke-width:0.26458332" /></text>
    <text
       xml:space="preserve"
       style="font-style:normal;font-weight:normal;font-size:7.05555534px;line-height:1.25;font-family:sans-serif;letter-spacing:0px;word-spacing:0px;fill:#000000;fill-opacity:1;stroke:none;stroke-width:0.26458332"
       x="35.122604"
       y="216.11157"
       id="text1040"><tspan
         sodipodi:role="line"
         id="tspan1038"
         x="35.122604"
         y="222.35408"
         style="stroke-width:0.26458332" /></text>
    <flowRoot
       xml:space="preserve"
       id="flowRoot1062"
       style="font-style:normal;font-weight:normal;font-size:26.66666603px;line-height:1.25;font-family:sans-serif;letter-spacing:0px;word-spacing:0px;fill:#000000;fill-opacity:1;stroke:none"
       transform="matrix(0.26458333,0,0,0.26458333,0,177)"><flowRegion
         id="flowRegion1064"><rect
           id="rect1066"
           width="79.446976"
           height="34.192371"
           x="120.67896"
           y="118.6592" /></flowRegion><flowPara
         id="flowPara1068" /></flowRoot>    <flowRoot
       xml:space="preserve"
       id="flowRoot1070"
       style="fill:black;fill-opacity:1;stroke:none;font-family:sans-serif;font-style:normal;font-weight:normal;font-size:26.66666667px;line-height:1.25;letter-spacing:0px;word-spacing:0px"><flowRegion
         id="flowRegion1072"><rect
           id="rect1074"
           width="81.458298"
           height="38.215004"
           x="120.67896"
           y="115.64223" /></flowRegion><flowPara
         id="flowPara1076" /></flowRoot>    <rect
       style="opacity:0.95999995;fill:#000000;fill-opacity:0;fill-rule:nonzero;stroke:#000000;stroke-width:0.38002461;stroke-linejoin:bevel;stroke-miterlimit:4;stroke-dasharray:none;stroke-dashoffset:0;stroke-opacity:1"
       id="rect1093"
       width="32.878933"
       height="30.750294"
       x="34.381878"
       y="206.59019" />
    <text
       xml:space="preserve"
       style="font-style:normal;font-weight:normal;font-size:7.05555534px;line-height:1.25;font-family:sans-serif;letter-spacing:0px;word-spacing:0px;fill:#000000;fill-opacity:1;stroke:none;stroke-width:0.26458332"
       x="37.783409"
       y="216.90982"
       id="text1142"><tspan
         sodipodi:role="line"
         id="tspan1140"
         x="37.783409"
         y="216.90982"
         style="stroke-width:0.26458332">id 5</tspan></text>
    <path
       style="fill:none;stroke:#000000;stroke-width:0.26458332px;stroke-linecap:butt;stroke-linejoin:miter;stroke-opacity:1"
       d="m 60.932395,206.79877 v 14.63441"
       id="path1159"
       inkscape:connector-curvature="0" />
    <circle
       id="path1165"
       style="fill:#000000;stroke:none"
       cx="63.85928"
       cy="213.98294"
       r="1.5" />
    <text
       xml:space="preserve"
       style="font-style:normal;font-weight:normal;font-size:7.05555534px;line-height:1.25;font-family:sans-serif;letter-spacing:0px;word-spacing:0px;fill:#000000;fill-opacity:1;stroke:none;stroke-width:0.26458332"
       x="13.570096"
       y="216.37766"
       id="text1196"><tspan
         sodipodi:role="line"
         id="tspan1194"
         x="13.570096"
         y="216.37766"
         style="stroke-width:0.26458332">\texttt{word}</tspan></text>
    <flowRoot
       xml:space="preserve"
       id="flowRoot1220"
       style="fill:black;fill-opacity:1;stroke:none;font-family:sans-serif;font-style:normal;font-weight:normal;font-size:26.66666667px;line-height:1.25;letter-spacing:0px;word-spacing:0px"><flowRegion
         id="flowRegion1222"><rect
           id="rect1224"
           width="76.430008"
           height="58.328159"
           x="598.36646"
           y="253.41737" /></flowRegion><flowPara
         id="flowPara1226" /></flowRoot>    <flowRoot
       xml:space="preserve"
       id="flowRoot1228"
       style="fill:black;fill-opacity:1;stroke:none;font-family:sans-serif;font-style:normal;font-weight:normal;font-size:26.66666667px;line-height:1.25;letter-spacing:0px;word-spacing:0px"><flowRegion
         id="flowRegion1230"><rect
           id="rect1232"
           width="97.54882"
           height="93.526192"
           x="535.01001"
           y="180.00435" /></flowRegion><flowPara
         id="flowPara1234" /></flowRoot>    <rect
       style="opacity:0.95999995;fill:#000000;fill-opacity:0.00205641;fill-rule:nonzero;stroke:#000000;stroke-width:0.26499999;stroke-linejoin:bevel;stroke-miterlimit:4;stroke-dasharray:none;stroke-dashoffset:0;stroke-opacity:1"
       id="rect1269"
       width="40.710289"
       height="15.432658"
       x="181.2007"
       y="211.05605" />
    <path
       style="fill:none;stroke:#000000;stroke-width:0.26458332px;stroke-linecap:butt;stroke-linejoin:miter;stroke-opacity:1"
       d="m 188.11879,211.05606 v 15.43265"
       id="path1271"
       inkscape:connector-curvature="0" />
    <circle
       id="path1273"
       style="fill:#000000;stroke:none"
       cx="184.39368"
       cy="219.03847"
       r="1.5" />
    <rect
       style="opacity:0.95999995;fill:#000000;fill-opacity:0.00205641;fill-rule:nonzero;stroke:#000000;stroke-width:0.3113412;stroke-linejoin:bevel;stroke-miterlimit:4;stroke-dasharray:none;stroke-dashoffset:0;stroke-opacity:1"
       id="rect1269-5"
       width="56.36269"
       height="15.386318"
       x="166.45641"
       y="248.86264" />
    <path
       style="fill:none;stroke:#000000;stroke-width:0.26458332px;stroke-linecap:butt;stroke-linejoin:miter;stroke-opacity:1"
       d="m 173.35135,248.83947 v 15.43265"
       id="path1271-2"
       inkscape:connector-curvature="0" />
    <circle
       id="path1273-2"
       style="fill:#000000;stroke:none;stroke-width:1"
       cx="169.62622"
       cy="256.8219"
       r="1.5" />
    <text
       xml:space="preserve"
       style="font-style:normal;font-weight:normal;font-size:7.05555534px;line-height:1.25;font-family:sans-serif;letter-spacing:0px;word-spacing:0px;fill:#000000;fill-opacity:1;stroke:none;stroke-width:0.26458332"
       x="180.40245"
       y="194.82515"
       id="text1311"><tspan
         sodipodi:role="line"
         id="tspan1309"
         x="180.40245"
         y="194.82515"
         style="stroke-width:0.26458332">\underline{Memory Stack}</tspan></text>
    <path
       style="fill:none;stroke:#000000;stroke-width:0.26458332px;stroke-linecap:butt;stroke-linejoin:miter;stroke-opacity:1"
       d="m 65.359279,213.98294 c 21.469551,-8.47067 107.821001,-0.35486 117.534391,5.05553"
       id="path1315"
       inkscape:connector-curvature="0" />
    <text
       xml:space="preserve"
       style="font-style:normal;font-weight:normal;font-size:7.05555534px;line-height:1.25;font-family:sans-serif;letter-spacing:0px;word-spacing:0px;fill:#000000;fill-opacity:1;stroke:none;stroke-width:0.26458332"
       x="176.67734"
       y="259.21661"
       id="text1325"><tspan
         sodipodi:role="line"
         id="tspan1323"
         x="176.67734"
         y="259.21661"
         style="stroke-width:0.26458332">\texttt{&quot;Our Word&quot;}</tspan></text>
    <text
       xml:space="preserve"
       style="font-style:normal;font-weight:normal;font-size:7.05555534px;line-height:1.25;font-family:sans-serif;letter-spacing:0px;word-spacing:0px;fill:#000000;fill-opacity:1;stroke:none;stroke-width:0.26458332"
       x="34.324364"
       y="196.15555"
       id="text1329"><tspan
         sodipodi:role="line"
         id="tspan1327"
         x="34.324364"
         y="196.15555"
         style="stroke-width:0.26458332">\underline{Variables}</tspan></text>
    <text
       xml:space="preserve"
       style="font-style:normal;font-weight:normal;font-size:7.05555534px;line-height:1.25;font-family:sans-serif;letter-spacing:0px;word-spacing:0px;fill:#000000;fill-opacity:1;stroke:none;stroke-width:0.26458332"
       x="194.23865"
       y="221.43318"
       id="text1566"><tspan
         sodipodi:role="line"
         id="tspan1564"
         x="194.23865"
         y="221.43318"
         style="stroke-width:0.26458332">\texttt{&quot;Our&quot;}</tspan></text>
    <path
       style="fill:none;stroke:#000000;stroke-width:0.26458332px;stroke-linecap:butt;stroke-linejoin:miter;stroke-opacity:1"
       d="m 65.359279,213.98294 c 11.925477,9.37218 25.344202,32.35688 41.338931,36.71908 17.42196,4.75145 59.63351,6.6855 61.42801,6.11988"
       id="path1568"
       inkscape:connector-curvature="0" />
    <path
       style="fill:none;stroke:#000000;stroke-width:0.26458332px;stroke-linecap:butt;stroke-linejoin:miter;stroke-opacity:1"
       d="M 34.324364,221.43318 60.932395,206.79877"
       id="path1572"
       inkscape:connector-curvature="0" />
    <text
       xml:space="preserve"
       style="font-style:normal;font-weight:normal;font-size:7.05555534px;line-height:1.25;font-family:sans-serif;letter-spacing:0px;word-spacing:0px;fill:#000000;fill-opacity:1;stroke:none;stroke-width:0.26458332"
       x="37.783409"
       y="231.27817"
       id="text1576"><tspan
         sodipodi:role="line"
         id="tspan1574"
         x="37.783409"
         y="231.27817"
         style="stroke-width:0.26458332">id 6</tspan></text>
    <path
       style="fill:none;stroke:#000000;stroke-width:0.26458332px;stroke-linecap:butt;stroke-linejoin:miter;stroke-opacity:1"
       d="M 34.381879,221.40155 H 67.26081"
       id="path1584"
       inkscape:connector-curvature="0" />
    <path
       style="fill:none;stroke:#000000;stroke-width:0.26458332px;stroke-linecap:butt;stroke-linejoin:miter;stroke-opacity:1"
       d="m 129.04896,219.30454 14.76746,-14.76746"
       id="path1650"
       inkscape:connector-curvature="0" />
    <path
       style="fill:none;stroke:#000000;stroke-width:0.26458332px;stroke-linecap:butt;stroke-linejoin:miter;stroke-opacity:1"
       d="m 129.04896,204.67012 13.96922,13.96922"
       id="path1652"
       inkscape:connector-curvature="0" />
  </g>
</svg>
